// Jest Snapshot v1, https://goo.gl/fbAQLP

exports[`>>> Dashboard test 1`] = `
<div
  className="Dashboard"
>
  <div
    className="ui segment"
  >
    <div
      className="ui header"
    >
      All CardBoards (
      2
      )
    </div>
    <div
      className="ui segment"
      style={
        Object {
          "height": "350px",
          "overflowY": "scroll",
        }
      }
    >
      <table
        className="ui celled padded table"
      >
        <thead
          className=""
        >
          <tr
            className=""
          >
            <th
              className=""
            >
              Type
            </th>
            <th
              className=""
            >
              Price
            </th>
          </tr>
        </thead>
        <tbody
          className=""
        >
          <tr
            className="cardboard-1"
          >
            <td
              className=""
            >
              high
            </td>
            <td
              className=""
            >
              20
            </td>
          </tr>
          <tr
            className="cardboard-2"
          >
            <td
              className=""
            >
              premium
            </td>
            <td
              className=""
            >
              30
            </td>
          </tr>
        </tbody>
      </table>
    </div>
  </div>
  <div
    className="ui segment"
  >
    <div
      className="ui header"
    >
      Shopping Cart
    </div>
    <div
      className="ui segment"
    >
      <table
        className="ui celled padded table"
      >
        <thead
          className=""
        >
          <tr
            className=""
          >
            <th
              className=""
            >
              Type
            </th>
            <th
              className=""
            >
              Quantity
            </th>
          </tr>
        </thead>
        <tbody
          className=""
        >
          <tr
            className="cardboard-1"
          >
            <td
              className=""
            >
              high
            </td>
            <td
              className=""
            >
              <div
                className="ui input"
              >
                <input
                  disabled={undefined}
                  min="0"
                  onChange={[Function]}
                  placeholder="0"
                  tabIndex={undefined}
                  type="number"
                />
              </div>
            </td>
          </tr>
          <tr
            className="cardboard-2"
          >
            <td
              className=""
            >
              premium
            </td>
            <td
              className=""
            >
              <div
                className="ui input"
              >
                <input
                  disabled={undefined}
                  min="0"
                  onChange={[Function]}
                  placeholder="0"
                  tabIndex={undefined}
                  type="number"
                />
              </div>
            </td>
          </tr>
        </tbody>
      </table>
      <button
        className="ui button"
        disabled={undefined}
        onClick={[Function]}
        role="button"
        tabIndex={undefined}
      >
        Submit Order
      </button>
    </div>
  </div>
</div>
`;
